9 以 dplyr 轉換資料 | R 學習筆記
…
先載入 nycflights13 與 tidyverse：

library(nycflights13)
library(tidyverse)

要注意的是，dplyr 與 base R 一套件 stats 的某些函數名稱相同，如 filter 與 lag。如果是先載入 stats，後載入 dplyr 的話，則使用 filter() 將會是 dplyr 的 filter，這時候如果還想使用 stats 的 filter()，則需使用其全名，即 stats::filter()。反之，如果是先載入 dplyr，後載入 stats，則使用 filter() 將會使用到 stats 的 filter()，這時候如果還想使用 dplyr 的 filter()，亦須使用全名，即 dplyr::filter()。

9.1.2 nycflights13

我們將使用 nycflights13 中的 flights 這個 dataset，此 data frame 包含 336,776 個觀察值，並有 19 個變數。

flights

## # A tibble: 336,776 × 19
##     year month   day dep_time sched_dep_time dep_delay arr_time sched_arr_time
##    <int> <int> <int>    <int>          <int>     <dbl>    <int>          <int>
##  1  2013     1     1      517            515         2      830            819
##  2  2013     1     1      533            529         4      850            830
##  3  2013     1     1      542            540         2      923            850
##  4  2013     1     1      544            545        -1     1004           1022
##  5  2013     1     1      554            600        -6      812            837
##  6  2013     1     1      554            558        -4      740            728
##  7  2013     1     1      555            600        -5      913            854
##  8  2013     1     1      557            600        -3      709            723
##  9  2013     1     1      557            600        -3      838            846
## 10  2013     1     1      558            600        -2      753            745
## # … with 336,766 more rows, and 11 more variables: arr_delay <dbl>,
## #   carrier <chr>, flight <int>, tailnum <chr>, origin <chr>, dest <chr>,
## #   air_time <dbl>, distance <dbl>, hour <dbl>, minute <dbl>, time_hour <dttm>
…
在節 9.5 以 mutate() 與現存變數的函數創造新的變數。

在節 9.6 以 summarize() 摘要資料。

以 group_by() 比較群組之間的關係。

我們的工作就是在第一個引數丟入一個 data frame，並在第二個引數描述要對其做什麼，然後得到一個新的 data frame。

9.2 Filter Rows with filter()

我們可以用 filter 來選取某些觀察值，例如：

filter(flights, month == 1, day == 1)

## # A tibble: 842 × 19
##     year month   day dep_time sched_dep_time dep_delay arr_time sched_arr_time
##    <int> <int> <int>    <int>          <int>     <dbl>    <int>          <int>
##  1  2013     1     1      517            515         2      830            819
##  2  2013     1     1      533            529         4      850            830
##  3  2013     1     1      542            540         2      923            850
##  4  2013     1     1      544            545        -1     1004           1022
##  5  2013     1     1      554            600        -6      812            837
##  6  2013     1     1      554            558        -4      740            728
##  7  2013     1     1      555            600        -5      913            854
##  8  2013     1     1      557            600        -3      709            723
##  9  2013     1     1      557            600        -3      838            846
## 10  2013     1     1      558            600        -2      753            745
## # … with 832 more rows, and 11 more variables: arr_delay <dbl>, carrier <chr>,
## #   flight <int>, tailnum <chr>, origin <chr>, dest <chr>, air_time <dbl>,
## #   distance <dbl>, hour <dbl>, minute <dbl>, time_hour <dttm>

因為 filter() 會創造一個新的 data frame，而不會更動原先輸入的那個 data frame，所以

9.2.1 比較

我們可以用比較運算子，如 >=、<、<=、!= 或 == 等來選取觀察值。

9.2.2 邏輯運算子

我們也可以運用邏輯運算子，如 & 即 “and”，| 即 “or” 而 ! 即 “not”（切記不要用成 && 或 ||！）。例如我們可以透過以下的程式碼找出 month 恰等於 11 或 12 的觀察值：

filter(flights, month == 11 | month == 12)

## # A tibble: 55,403 × 19
##     year month   day dep_time sched_dep_time dep_delay arr_time sched_arr_time
##    <int> <int> <int>    <int>          <int>     <dbl>    <int>          <int>
##  1  2013    11     1        5           2359         6      352            345
##  2  2013    11     1       35           2250       105      123           2356
##  3  2013    11     1      455            500        -5      641            651
##  4  2013    11     1      539            545        -6      856            827
##  5  2013    11     1      542            545        -3      831            855
##  6  2013    11     1      549            600       -11      912            923
##  7  2013    11     1      550            600       -10      705            659
##  8  2013    11     1      554            600        -6      659            701
##  9  2013    11     1      554            600        -6      826            827
## 10  2013    11     1      554            600        -6      749            751
## # … with 55,393 more rows, and 11 more variables: arr_delay <dbl>,
## #   carrier <chr>, flight <int>, tailnum <chr>, origin <chr>, dest <chr>,
## #   air_time <dbl>, distance <dbl>, hour <dbl>, minute <dbl>, time_hour <dttm>
…
filter(df, is.na(x) | x > 1)

## # A tibble: 2 × 1
##       x
##   <dbl>
## 1    NA
## 2     3

9.3 Arrange Rows with arrange()

使用 arrange() 可以改變觀察值的排列順序。

arrange(flights, year, month, day)  # 先排前面的引數，由小至大排列

## # A tibble: 336,776 × 19
##     year month   day dep_time sched_dep_time dep_delay arr_time sched_arr_time
##    <int> <int> <int>    <int>          <int>     <dbl>    <int>          <int>
##  1  2013     1     1      517            515         2      830            819
##  2  2013     1     1      533            529         4      850            830
##  3  2013     1     1      542            540         2      923            850
##  4  2013     1     1      544            545        -1     1004           1022
##  5  2013     1     1      554            600        -6      812            837
##  6  2013     1     1      554            558        -4      740            728
##  7  2013     1     1      555            600        -5      913            854
##  8  2013     1     1      557            600        -3      709            723
##  9  2013     1     1      557            600        -3      838            846
## 10  2013     1     1      558            600        -2      753            745
## # … with 336,766 more rows, and 11 more variables: arr_delay <dbl>,
## #   carrier <chr>, flight <int>, tailnum <chr>, origin <chr>, dest <chr>,
## #   air_time <dbl>, distance <dbl>, hour <dbl>, minute <dbl>, time_hour <dttm>

使用 desc() 可以製造由大至小的排列，如：

arrange(flights, desc(dep_time), day)

## # A tibble: 336,776 × 19
##     year month   day dep_time sched_dep_time dep_delay arr_time sched_arr_time
##    <int> <int> <int>    <int>          <int>     <dbl>    <int>          <int>
##  1  2013     4     2     2400           2359         1      339            343
##  2  2013     9     2     2400           2359         1      411            340
##  3  2013     4     4     2400           2355         5      347            345
##  4  2013    12     5     2400           2359         1      427            440
##  5  2013     2     7     2400           2359         1      432            436
##  6  2013     2     7     2400           2359         1      443            444
##  7  2013     7     7     2400           1950       250      107           2130
##  8  2013    12     9     2400           2359         1      432            440
##  9  2013    12     9     2400           2250        70       59           2356
## 10  2013     8    10     2400           2245        75      110              1
## # … with 336,766 more rows, and 11 more variables: arr_delay <dbl>,
## #   carrier <chr>, flight <int>, tailnum <chr>, origin <chr>, dest <chr>,
## #   air_time <dbl>, distance <dbl>, hour <dbl>, minute <dbl>, time_hour <dttm>
…
## # A tibble: 3 × 1
##       x
##   <dbl>
## 1     5
## 2     2
## 3    NA

9.4 Select Columns with select()

filter() 與 arrange() 處理的對象是 rows，而 select() 處理的則是 columns。我們可以透過 select()，快速地選取指定的變數，如：

select(flights, year, month, day)

## # A tibble: 336,776 × 3
##     year month   day
##    <int> <int> <int>
##  1  2013     1     1
##  2  2013     1     1
##  3  2013     1     1
##  4  2013     1     1
##  5  2013     1     1
##  6  2013     1     1
##  7  2013     1     1
##  8  2013     1     1
##  9  2013     1     1
## 10  2013     1     1
## # … with 336,766 more rows
…
start_with("abc")：選取名稱以 “abc” 開頭的變數。

ends_with("abc")：選取名稱以 “abc” 結尾的變數。

contains("abc")：選取名稱中包含 “abc” 的變數。

matches("abc$")：選取名稱符合正規表示式的變數，此例中為名稱以 “abc” 結尾的變數。正規表示式將會在第 15 章介紹。

num_range("x", 1:3)：選取名為 x1、x2、x3 的變數。

以下為範例：

select(flights, starts_with("d"))  # 選取名稱以 "d" 開頭的變數

## # A tibble: 336,776 × 5
##      day dep_time dep_delay dest  distance
##    <int>    <int>     <dbl> <chr>    <dbl>
##  1     1      517         2 IAH       1400
##  2     1      533         4 IAH       1416
##  3     1      542         2 MIA       1089
##  4     1      544        -1 BQN       1576
##  5     1      554        -6 ATL        762
##  6     1      554        -4 ORD        719
##  7     1      555        -5 FLL       1065
##  8     1      557        -3 IAD        229
##  9     1      557        -3 MCO        944
## 10     1      558        -2 ORD        733
## # … with 336,766 more rows

select(flights, ends_with("t"))  # 選取名稱以 "t" 結尾的變數

## # A tibble: 336,776 × 2
##    flight dest 
##     <int> <chr>
##  1   1545 IAH  
##  2   1714 IAH  
##  3   1141 MIA  
##  4    725 BQN  
##  5    461 ATL  
##  6   1696 ORD  
##  7    507 FLL  
##  8   5708 IAD  
##  9     79 MCO  
## 10    301 ORD  
## # … with 336,766 more rows

select(flights, contains("ep"))  # 選取名稱中包含 "ep" 的變數

## # A tibble: 336,776 × 3
##    dep_time sched_dep_time dep_delay
##       <int>          <int>     <dbl>
##  1      517            515         2
##  2      533            529         4
##  3      542            540         2
##  4      544            545        -1
##  5      554            600        -6
##  6      554            558        -4
##  7      555            600        -5
##  8      557            600        -3
##  9      557            600        -3
## 10      558            600        -2
## # … with 336,766 more rows

select(flights, matches("time$"))  # 選取名稱以 "time" 結尾的變數

## # A tibble: 336,776 × 5
##    dep_time sched_dep_time arr_time sched_arr_time air_time
##       <int>          <int>    <int>          <int>    <dbl>
##  1      517            515      830            819      227
##  2      533            529      850            830      227
##  3      542            540      923            850      160
##  4      544            545     1004           1022      183
##  5      554            600      812            837      116
##  6      554            558      740            728      150
##  7      555            600      913            854      158
##  8      557            600      709            723       53
##  9      557            600      838            846      140
## 10      558            600      753            745      138
## # … with 336,766 more rows

9.4.2 重新命名：rename()

有兩種重新命名變數的方法：

使用 select(資料, 新變數名稱 = 舊變數名稱, everything())。之所以要加 everything 是因為如果不加，select() 將會丟棄其他所有變數，而 everything() 的用途即在補上其他 columns。

使用 rename(資料, 新變數名稱 = 舊變數名稱)。

此外，因為 everything() 可以補上其他沒有選到的 columns，所以也可以用來移動變數的順序，如我們想要把 dep_time 與 arr_time 移到前面的話，即：

select(flights, dep_time, arr_time, everything())

## # A tibble: 336,776 × 19
##    dep_time arr_time  year month   day sched_dep_time dep_delay sched_arr_time
##       <int>    <int> <int> <int> <int>          <int>     <dbl>          <int>
##  1      517      830  2013     1     1            515         2            819
##  2      533      850  2013     1     1            529         4            830
##  3      542      923  2013     1     1            540         2            850
##  4      544     1004  2013     1     1            545        -1           1022
##  5      554      812  2013     1     1            600        -6            837
##  6      554      740  2013     1     1            558        -4            728
##  7      555      913  2013     1     1            600        -5            854
##  8      557      709  2013     1     1            600        -3            723
##  9      557      838  2013     1     1            600        -3            846
## 10      558      753  2013     1     1            600        -2            745
## # … with 336,766 more rows, and 11 more variables: arr_delay <dbl>,
## #   carrier <chr>, flight <int>, tailnum <chr>, origin <chr>, dest <chr>,
## #   air_time <dbl>, distance <dbl>, hour <dbl>, minute <dbl>, time_hour <dttm>

9.5 Add New Variables with mutate()

我們還會想新增 columns 為既有 columns 的函數，那就要使用 mutate()。我們先新建一個小一點的表格，方便查看結果，然後新增兩個 columns，其一為 gain，為 arr_delay 減去 ep_delay；其一為 speed，為 distance 除以 air_time 再乘以 60：

flights_sml <- select(flights, year:day, ends_with("delay"), distance, air_time)

mutate(flights_sml,
       gain = arr_delay - dep_delay,
       speed = distance / air_time * 60)

## # A tibble: 336,776 × 9
##     year month   day dep_delay arr_delay distance air_time  gain speed
##    <int> <int> <int>     <dbl>     <dbl>    <dbl>    <dbl> <dbl> <dbl>
##  1  2013     1     1         2        11     1400      227     9  370.
##  2  2013     1     1         4        20     1416      227    16  374.
##  3  2013     1     1         2        33     1089      160    31  408.
##  4  2013     1     1        -1       -18     1576      183   -17  517.
##  5  2013     1     1        -6       -25      762      116   -19  394.
##  6  2013     1     1        -4        12      719      150    16  288.
##  7  2013     1     1        -5        19     1065      158    24  404.
##  8  2013     1     1        -3       -14      229       53   -11  259.
##  9  2013     1     1        -3        -8      944      140    -5  405.
## 10  2013     1     1        -2         8      733      138    10  319.
## # … with 336,766 more rows
也可以在後面的引數中，使用前面的引數剛新增出來的 columns，如：

mutate(flights_sml,
       gain = arr_delay - dep_delay,
       hours = air_time / 60,
       gain_per_hour = gain / hours)

只想要保存新變數的話，可以用 transmute()，如：

transmute(flights_sml,
       gain = arr_delay - dep_delay,
       hours = air_time / 60,
       gain_per_hour = gain / hours)

## # A tibble: 336,776 × 3
##     gain hours gain_per_hour
##    <dbl> <dbl>         <dbl>
##  1     9 3.78           2.38
##  2    16 3.78           4.23
##  3    31 2.67          11.6 
##  4   -17 3.05          -5.57
##  5   -19 1.93          -9.83
##  6    16 2.5            6.4 
##  7    24 2.63           9.11
##  8   -11 0.883        -12.5 
##  9    -5 2.33          -2.14
## 10    10 2.3            4.35
## # … with 336,766 more rows
…
## # A tibble: 1 × 1
##   delay
##   <dbl>
## 1  12.6

其中，使用 na.rm = TRUE 的原因在避免計算出一大堆 NA，見節 9.6.2。

但 summarize() 要搭配上 group_by() 才顯得更強大。如果我們想要知道每天的 dep_delay 的平均到底是多少與每天有多少個航班，我們可以使用 group_by()，將 flights 這個 dataset 依照 year、month、day 分組，然後指派給變數 by_day。接著，我們就可以使用 summarize()，並定義兩個新變數欄位為 delay 與 count，如：

by_day <- group_by(flights, year, month, day)
summarize(by_day, delay = mean(dep_delay, na.rm = TRUE), count = n())

## `summarise()` has grouped output by 'year', 'month'. You can override using the `.groups` argument.

## # A tibble: 365 × 5
## # Groups:   year, month [12]
##     year month   day delay count
##    <int> <int> <int> <dbl> <int>
##  1  2013     1     1 11.5    842
##  2  2013     1     2 13.9    943
##  3  2013     1     3 11.0    914
##  4  2013     1     4  8.95   915
##  5  2013     1     5  5.73   720
##  6  2013     1     6  7.15   832
##  7  2013     1     7  5.42   933
##  8  2013     1     8  2.55   899
##  9  2013     1     9  2.28   902
## 10  2013     1    10  2.84   932
## # … with 355 more rows
…
在此，NA 代表航班取消；我們也可以先把 NA 的地方去除掉，如：

not_cancelled <- flights %>%
  filter(!is.na(dep_delay), !is.na(arr_delay))

not_cancelled %>%
  group_by(year, month, day) %>%
  summarize(mean = mean(dep_delay))

## `summarise()` has grouped output by 'year', 'month'. You can override using the `.groups` argument.

## # A tibble: 365 × 4
## # Groups:   year, month [12]
##     year month   day  mean
##    <int> <int> <int> <dbl>
##  1  2013     1     1 11.4 
##  2  2013     1     2 13.7 
##  3  2013     1     3 10.9 
##  4  2013     1     4  8.97
##  5  2013     1     5  5.73
##  6  2013     1     6  7.15
##  7  2013     1     7  5.42
##  8  2013     1     8  2.56
##  9  2013     1     9  2.30
## 10  2013     1    10  2.84
## # … with 355 more rows
…
Measures of location: mean(x), median(x).

not_cancelled %>%
  group_by(year, month, day) %>%
  summarize(
    # average delay:
    avg_delay1 = mean(arr_delay),
    # average positive delay:
    avg_delay2 = mean(arr_delay[arr_delay > 0])
)

## `summarise()` has grouped output by 'year', 'month'. You can override using the `.groups` argument.

## # A tibble: 365 × 5
## # Groups:   year, month [12]
##     year month   day avg_delay1 avg_delay2
##    <int> <int> <int>      <dbl>      <dbl>
##  1  2013     1     1     12.7         32.5
##  2  2013     1     2     12.7         32.0
##  3  2013     1     3      5.73        27.7
##  4  2013     1     4     -1.93        28.3
##  5  2013     1     5     -1.53        22.6
##  6  2013     1     6      4.24        24.4
##  7  2013     1     7     -4.95        27.8
##  8  2013     1     8     -3.23        20.8
##  9  2013     1     9     -0.264       25.6
## 10  2013     1    10     -5.90        27.3
## # … with 355 more rows

Measures of spread: sd(x), IQR(x), mad(x).

標準差、四分位距（interquartile range）與絕對中位差（median absolute deviation，即原數據減去中位數所得的新數據的絕對值的中位數）。

\(\mbox{MAD} = \mbox{median}(|X_i - \mbox{median}|)\).

# 算出不同目的地的距離標準差，並降冪排列
not_cancelled %>%
  group_by(dest) %>%
  summarize(distance_sd = sd(distance)) %>%
  arrange(desc(distance_sd))

## # A tibble: 104 × 2
##    dest  distance_sd
##    <chr>       <dbl>
##  1 EGE         10.5 
##  2 SAN         10.4 
##  3 SFO         10.2 
##  4 HNL         10.0 
##  5 SEA          9.98
##  6 LAS          9.91
##  7 PDX          9.87
##  8 PHX          9.86
##  9 LAX          9.66
## 10 IND          9.46
## # … with 94 more rows
Measures of rank: min(x), quantile(x, 0.25), max(x).

quantile(x, 0.25) 即大於 25 % 的樣本但小於剩餘的 75 % 者。

# 算出每天第一班與最後一班班機
not_cancelled %>%
  group_by(year, month, day) %>%
  summarize(
    first = min(dep_time),
    last = max(dep_time)
  )

## `summarise()` has grouped output by 'year', 'month'. You can override using the `.groups` argument.

## # A tibble: 365 × 5
## # Groups:   year, month [12]
##     year month   day first  last
##    <int> <int> <int> <int> <int>
##  1  2013     1     1   517  2356
##  2  2013     1     2    42  2354
##  3  2013     1     3    32  2349
##  4  2013     1     4    25  2358
##  5  2013     1     5    14  2357
##  6  2013     1     6    16  2355
##  7  2013     1     7    49  2359
##  8  2013     1     8   454  2351
##  9  2013     1     9     2  2252
## 10  2013     1    10     3  2320
## # … with 355 more rows

Measures of position: first(x), nth(x, 2), last(x).

# 找出每天第一班與最後一班班機
not_cancelled %>%
  group_by(year, month, day) %>%
  summarize(
    first = min(dep_time),
    last = max(dep_time)
  )

## `summarise()` has grouped output by 'year', 'month'. You can override using the `.groups` argument.

## # A tibble: 365 × 5
## # Groups:   year, month [12]
##     year month   day first  last
##    <int> <int> <int> <int> <int>
##  1  2013     1     1   517  2356
##  2  2013     1     2    42  2354
##  3  2013     1     3    32  2349
##  4  2013     1     4    25  2358
##  5  2013     1     5    14  2357
##  6  2013     1     6    16  2355
##  7  2013     1     7    49  2359
##  8  2013     1     8   454  2351
##  9  2013     1     9     2  2252
## 10  2013     1    10     3  2320
## # … with 355 more rows
…
