12 以 readr 匯入資料 | R 學習筆記
…
然後我們也可以配合使用 type_convert()，如：

type_convert(challenge2)

## 
## ── Column specification ────────────────────────────────────────────────────────
## cols(
##   x = col_double(),
##   y = col_date(format = "")
## )

## # A tibble: 2,000 × 2
##        x y     
##    <dbl> <date>
##  1   404 NA    
##  2  4172 NA    
##  3  3004 NA    
##  4   787 NA    
##  5    37 NA    
##  6  2332 NA    
##  7  2489 NA    
##  8  1449 NA    
##  9  3665 NA    
## 10  3863 NA    
## # … with 1,990 more rows
…
