6 以 dplyr 進行資料轉換 | R 學習筆記
…
## ── Conflicts ────────────────────────────────────────── tidyverse_conflicts() ──
## x dplyr::filter() masks stats::filter()
## x dplyr::lag()    masks stats::lag()

要注意的是，dplyr 與 base R 一套件 stats 的某些函數名稱相同，如 filter 與 lag。如果是先載入 stats，後載入 dplyr 的話，則使用 filter() 將會是 dplyr 的 filter，這時候如果還想使用 stats 的 filter()，則需使用其全名，即 stats::filter()。反之，如果是先載入 dplyr，後載入 stats，則使用 filter() 將會使用到 stats 的 filter()，這時候如果還想使用 dplyr 的 filter()，亦須使用全名，即 dplyr::filter()。

6.1.2 nycflights13

我們將使用 nycflights13 中的 flights 這個 dataset，此 data frame 包含 336,776 個觀察值，並有 19 個變數。

flights

## # A tibble: 336,776 × 19
##     year month   day dep_time sched_dep_time dep_delay arr_time sched_arr_time
##    <int> <int> <int>    <int>          <int>     <dbl>    <int>          <int>
##  1  2013     1     1      517            515         2      830            819
##  2  2013     1     1      533            529         4      850            830
##  3  2013     1     1      542            540         2      923            850
##  4  2013     1     1      544            545        -1     1004           1022
##  5  2013     1     1      554            600        -6      812            837
##  6  2013     1     1      554            558        -4      740            728
##  7  2013     1     1      555            600        -5      913            854
##  8  2013     1     1      557            600        -3      709            723
##  9  2013     1     1      557            600        -3      838            846
## 10  2013     1     1      558            600        -2      753            745
## # … with 336,766 more rows, and 11 more variables: arr_delay <dbl>,
## #   carrier <chr>, flight <int>, tailnum <chr>, origin <chr>, dest <chr>,
## #   air_time <dbl>, distance <dbl>, hour <dbl>, minute <dbl>, time_hour <dttm>
…
